…
```
## Warning: 4 parsing failures.
## row col   expected    actual                              file
## 209  -- 19 columns 1 columns 'pred_data/state_gdp_quarter.csv'
## 210  -- 19 columns 1 columns 'pred_data/state_gdp_quarter.csv'
## 211  -- 19 columns 1 columns 'pred_data/state_gdp_quarter.csv'
## 212  -- 19 columns 1 columns 'pred_data/state_gdp_quarter.csv'
```

```r
econ_update
```

```
## # A tibble: 484 x 31
##    GeoFIPS GeoName Region TableName LineCode IndustryClassif~ Description Unit 
##    <chr>   <chr>    <dbl> <chr>        <dbl> <chr>            <chr>       <chr>
##  1 00000   United~     NA SAGDP1           1 ...              Real GDP (~ Mill~
##  2 00000   United~     NA SAGDP1           2 ...              Chain-type~ Quan~
##  3 00000   United~     NA SAGDP1           3 ...              Current-do~ Mill~
##  4 00000   United~     NA SAGDP1           4 ...              Compensati~ Mill~
##  5 00000   United~     NA SAGDP1           5 ...              Gross oper~ Mill~
##  6 00000   United~     NA SAGDP1           6 ...              Taxes on p~ Mill~
##  7 00000   United~     NA SAGDP1           7 ...              Taxes on p~ Mill~
##  8 00000   United~     NA SAGDP1           8 ...              Subsidies ~ Mill~
##  9 01000   Alabama      5 SAGDP1           1 ...              Real GDP (~ Mill~
## 10 01000   Alabama      5 SAGDP1           2 ...              Chain-type~ Quan~
## # ... with 474 more rows, and 23 more variables: `1997` <dbl>, `1998` <dbl>,
## #   `1999` <dbl>, `2000` <dbl>, `2001` <dbl>, `2002` <dbl>, `2003` <dbl>,
## #   `2004` <dbl>, `2005` <dbl>, `2006` <dbl>, `2007` <dbl>, `2008` <dbl>,
## #   `2009` <dbl>, `2010` <dbl>, `2011` <dbl>, `2012` <dbl>, `2013` <dbl>,
## #   `2014` <dbl>, `2015` <dbl>, `2016` <dbl>, `2017` <dbl>, `2018` <dbl>,
## #   `2019` <dbl>
```
…
